{
	"current_page": 1,
	"data": [{
		"vehicle_id": "003E439CA620D8C1AE26844444444444",
		"member_id": 1,
		"is_deleted": false,
		"vehicle_alias": "615\/898",
		"vehicle_vin": "1FMCU4K32BKC52142",
		"vehicle_reg_state_id": 0,
		"vehicle_reg_country_id": 0,
		"vehicle_license_plate": "1376774",
		"vehicle_type_id": "",
		"timestamp_added": "2017-02-24T00:21:34-05:00",
		"vehicle_make": "Ford",
		"vehicle_model_year": 2011,
		"vehicle_model": "ESCAPE HYBRID",
		"vehicle_year_acquired": 0,
		"vehicle_cost_new": null,
		"purchased_new": false,
		"license_start_date": "2018-08-15",
		"license_end_date": "2018-08-15",
		"vehicle_axle_count": 0,
		"is_operational": true,
		"mpg_city": 0,
		"mpg_highway": 0,
		"fuel_type": "",
		"height_inches": 0,
		"weight_lb": 0,
		"external_telematics_vehicle_id": null,
		"has_trailer": false,
		"heightInInches": null,
		"lengthInInches": null,
		"widthInInches": null,
		"maxWeightPerAxleGroupInPounds": null,
		"numAxles": null,
		"weightInPounds": null,
		"HazmatType": "NONE",
		"LowEmissionZonePref": null,
		"Use53FootTrailerRouting": null,
		"UseNationalNetwork": null,
		"UseTruckRestrictions": null,
		"AvoidFerries": "NO",
		"DividedHighwayAvoidPreference": null,
		"FreewayAvoidPreference": null,
		"InternationalBordersOpen": null,
		"TollRoadUsage": null,
		"hwy_only": false,
		"long_combination_vehicle": false,
		"avoid_highways": false,
		"side_street_adherence": "OFF",
		"truck_config": "NONE",
		"height_metric": null,
		"length_metric": null,
		"width_metric": null,
		"weight_metric": null,
		"max_weight_per_axle_group_metric": null,
		"timestamp_removed": null
	},
	{
		"vehicle_id": "00C7D00B8DB25AFBD5FD0CCCCCCCCCCC",
		"member_id": 1,
		"is_deleted": false,
		"vehicle_alias": "71\/856",
		"vehicle_vin": "1FTWF31Y88EB68028",
		"vehicle_reg_state_id": 0,
		"vehicle_reg_country_id": 0,
		"vehicle_license_plate": "1276847",
		"vehicle_type_id": "",
		"timestamp_added": "2017-02-24T00:20:37-05:00",
		"vehicle_make": "Ford",
		"vehicle_model_year": 2008,
		"vehicle_model": "F350",
		"vehicle_year_acquired": 0,
		"vehicle_cost_new": null,
		"purchased_new": false,
		"license_start_date": "2018-08-15",
		"license_end_date": "2018-08-15",
		"vehicle_axle_count": 0,
		"is_operational": true,
		"mpg_city": 0,
		"mpg_highway": 0,
		"fuel_type": "",
		"height_inches": 0,
		"weight_lb": 0,
		"external_telematics_vehicle_id": null,
		"has_trailer": false,
		"heightInInches": null,
		"lengthInInches": null,
		"widthInInches": null,
		"maxWeightPerAxleGroupInPounds": null,
		"numAxles": null,
		"weightInPounds": null,
		"HazmatType": "NONE",
		"LowEmissionZonePref": null,
		"Use53FootTrailerRouting": null,
		"UseNationalNetwork": null,
		"UseTruckRestrictions": null,
		"AvoidFerries": "NO",
		"DividedHighwayAvoidPreference": null,
		"FreewayAvoidPreference": null,
		"InternationalBordersOpen": null,
		"TollRoadUsage": null,
		"hwy_only": false,
		"long_combination_vehicle": false,
		"avoid_highways": false,
		"side_street_adherence": "OFF",
		"truck_config": "NONE",
		"height_metric": null,
		"length_metric": null,
		"width_metric": null,
		"weight_metric": null,
		"max_weight_per_axle_group_metric": null,
		"timestamp_removed": null
	},
	{
		"vehicle_id": "01FBEF1CB1E7AEB74724A22222222222",
		"member_id": 1,
		"is_deleted": false,
		"vehicle_alias": "18\/898",
		"vehicle_vin": "2GCEC19X121313049",
		"vehicle_reg_state_id": 0,
		"vehicle_reg_country_id": 0,
		"vehicle_license_plate": "1129466",
		"vehicle_type_id": "",
		"timestamp_added": "2017-02-24T00:20:48-05:00",
		"vehicle_make": "Chevrolet",
		"vehicle_model_year": 2002,
		"vehicle_model": "1500",
		"vehicle_year_acquired": 0,
		"vehicle_cost_new": null,
		"purchased_new": false,
		"license_start_date": "2018-08-15",
		"license_end_date": "2018-08-15",
		"vehicle_axle_count": 0,
		"is_operational": true,
		"mpg_city": 0,
		"mpg_highway": 0,
		"fuel_type": "",
		"height_inches": 0,
		"weight_lb": 0,
		"external_telematics_vehicle_id": null,
		"has_trailer": false,
		"heightInInches": null,
		"lengthInInches": null,
		"widthInInches": null,
		"maxWeightPerAxleGroupInPounds": null,
		"numAxles": null,
		"weightInPounds": null,
		"HazmatType": "NONE",
		"LowEmissionZonePref": null,
		"Use53FootTrailerRouting": null,
		"UseNationalNetwork": null,
		"UseTruckRestrictions": null,
		"AvoidFerries": "NO",
		"DividedHighwayAvoidPreference": null,
		"FreewayAvoidPreference": null,
		"InternationalBordersOpen": null,
		"TollRoadUsage": null,
		"hwy_only": false,
		"long_combination_vehicle": false,
		"avoid_highways": false,
		"side_street_adherence": "OFF",
		"truck_config": "NONE",
		"height_metric": null,
		"length_metric": null,
		"width_metric": null,
		"weight_metric": null,
		"max_weight_per_axle_group_metric": null,
		"timestamp_removed": null
	},
	{
		"vehicle_id": "041E6B6BE09C7E74C40E8A9999999999",
		"member_id": 1,
		"is_deleted": false,
		"vehicle_alias": "185\/856",
		"vehicle_vin": "1GCHC24K47E557864",
		"vehicle_reg_state_id": 0,
		"vehicle_reg_country_id": 0,
		"vehicle_license_plate": "1270190",
		"vehicle_type_id": "",
		"timestamp_added": "2017-02-24T00:20:33-05:00",
		"vehicle_make": "GMC",
		"vehicle_model_year": 2007,
		"vehicle_model": "2500",
		"vehicle_year_acquired": 0,
		"vehicle_cost_new": null,
		"purchased_new": false,
		"license_start_date": "2018-08-15",
		"license_end_date": "2018-08-15",
		"vehicle_axle_count": 0,
		"is_operational": true,
		"mpg_city": 0,
		"mpg_highway": 0,
		"fuel_type": "",
		"height_inches": 0,
		"weight_lb": 0,
		"external_telematics_vehicle_id": null,
		"has_trailer": false,
		"heightInInches": null,
		"lengthInInches": null,
		"widthInInches": null,
		"maxWeightPerAxleGroupInPounds": null,
		"numAxles": null,
		"weightInPounds": null,
		"HazmatType": "NONE",
		"LowEmissionZonePref": null,
		"Use53FootTrailerRouting": null,
		"UseNationalNetwork": null,
		"UseTruckRestrictions": null,
		"AvoidFerries": "NO",
		"DividedHighwayAvoidPreference": null,
		"FreewayAvoidPreference": null,
		"InternationalBordersOpen": null,
		"TollRoadUsage": null,
		"hwy_only": false,
		"long_combination_vehicle": false,
		"avoid_highways": false,
		"side_street_adherence": "OFF",
		"truck_config": "NONE",
		"height_metric": null,
		"length_metric": null,
		"width_metric": null,
		"weight_metric": null,
		"max_weight_per_axle_group_metric": null,
		"timestamp_removed": null
	},
	{
		"vehicle_id": "04E74AD6BF2614E6B103777777777777",
		"member_id": 1,
		"is_deleted": false,
		"vehicle_alias": "329\/856",
		"vehicle_vin": "1GDC4C1G46F402216",
		"vehicle_reg_state_id": 0,
		"vehicle_reg_country_id": 0,
		"vehicle_license_plate": "1186570",
		"vehicle_type_id": "",
		"timestamp_added": "2017-02-24T00:14:08-05:00",
		"vehicle_make": "GMC",
		"vehicle_model_year": 2006,
		"vehicle_model": "4500",
		"vehicle_year_acquired": 0,
		"vehicle_cost_new": null,
		"purchased_new": false,
		"license_start_date": "2018-08-15",
		"license_end_date": "2018-08-15",
		"vehicle_axle_count": 0,
		"is_operational": true,
		"mpg_city": 0,
		"mpg_highway": 0,
		"fuel_type": "",
		"height_inches": 0,
		"weight_lb": 0,
		"external_telematics_vehicle_id": null,
		"has_trailer": false,
		"heightInInches": null,
		"lengthInInches": null,
		"widthInInches": null,
		"maxWeightPerAxleGroupInPounds": null,
		"numAxles": null,
		"weightInPounds": null,
		"HazmatType": "NONE",
		"LowEmissionZonePref": null,
		"Use53FootTrailerRouting": null,
		"UseNationalNetwork": null,
		"UseTruckRestrictions": null,
		"AvoidFerries": "NO",
		"DividedHighwayAvoidPreference": null,
		"FreewayAvoidPreference": null,
		"InternationalBordersOpen": null,
		"TollRoadUsage": null,
		"hwy_only": false,
		"long_combination_vehicle": false,
		"avoid_highways": false,
		"side_street_adherence": "OFF",
		"truck_config": "NONE",
		"height_metric": null,
		"length_metric": null,
		"width_metric": null,
		"weight_metric": null,
		"max_weight_per_axle_group_metric": null,
		"timestamp_removed": null
	},
	{
		"vehicle_id": "04E8A16A1E95024C8EF9FB0333333333",
		"member_id": 1,
		"is_deleted": false,
		"vehicle_alias": "481\/811",
		"vehicle_vin": "1FTMF1CMXDKE52472",
		"vehicle_reg_state_id": 0,
		"vehicle_reg_country_id": 0,
		"vehicle_license_plate": "1416210",
		"vehicle_type_id": "",
		"timestamp_added": "2017-02-24T00:13:59-05:00",
		"vehicle_make": "Ford",
		"vehicle_model_year": 2013,
		"vehicle_model": "F-150",
		"vehicle_year_acquired": 0,
		"vehicle_cost_new": null,
		"purchased_new": false,
		"license_start_date": "2018-08-15",
		"license_end_date": "2018-08-15",
		"vehicle_axle_count": 0,
		"is_operational": true,
		"mpg_city": 0,
		"mpg_highway": 0,
		"fuel_type": "",
		"height_inches": 0,
		"weight_lb": 0,
		"external_telematics_vehicle_id": null,
		"has_trailer": false,
		"heightInInches": null,
		"lengthInInches": null,
		"widthInInches": null,
		"maxWeightPerAxleGroupInPounds": null,
		"numAxles": null,
		"weightInPounds": null,
		"HazmatType": "NONE",
		"LowEmissionZonePref": null,
		"Use53FootTrailerRouting": null,
		"UseNationalNetwork": null,
		"UseTruckRestrictions": null,
		"AvoidFerries": "NO",
		"DividedHighwayAvoidPreference": null,
		"FreewayAvoidPreference": null,
		"InternationalBordersOpen": null,
		"TollRoadUsage": null,
		"hwy_only": false,
		"long_combination_vehicle": false,
		"avoid_highways": false,
		"side_street_adherence": "OFF",
		"truck_config": "NONE",
		"height_metric": null,
		"length_metric": null,
		"width_metric": null,
		"weight_metric": null,
		"max_weight_per_axle_group_metric": null,
		"timestamp_removed": null
	},
	{
		"vehicle_id": "052A30EDD5069525D7B1D420CCCCCCCC",
		"member_id": 1,
		"is_deleted": false,
		"vehicle_alias": "213\/899",
		"vehicle_vin": "1GCHC24U33E288347",
		"vehicle_reg_state_id": 0,
		"vehicle_reg_country_id": 0,
		"vehicle_license_plate": "1169150",
		"vehicle_type_id": "",
		"timestamp_added": "2017-02-24T00:20:45-05:00",
		"vehicle_make": "Chevrolet",
		"vehicle_model_year": 2003,
		"vehicle_model": "2500HD",
		"vehicle_year_acquired": 0,
		"vehicle_cost_new": null,
		"purchased_new": false,
		"license_start_date": "2018-08-15",
		"license_end_date": "2018-08-15",
		"vehicle_axle_count": 0,
		"is_operational": true,
		"mpg_city": 0,
		"mpg_highway": 0,
		"fuel_type": "",
		"height_inches": 0,
		"weight_lb": 0,
		"external_telematics_vehicle_id": null,
		"has_trailer": false,
		"heightInInches": null,
		"lengthInInches": null,
		"widthInInches": null,
		"maxWeightPerAxleGroupInPounds": null,
		"numAxles": null,
		"weightInPounds": null,
		"HazmatType": "NONE",
		"LowEmissionZonePref": null,
		"Use53FootTrailerRouting": null,
		"UseNationalNetwork": null,
		"UseTruckRestrictions": null,
		"AvoidFerries": "NO",
		"DividedHighwayAvoidPreference": null,
		"FreewayAvoidPreference": null,
		"InternationalBordersOpen": null,
		"TollRoadUsage": null,
		"hwy_only": false,
		"long_combination_vehicle": false,
		"avoid_highways": false,
		"side_street_adherence": "OFF",
		"truck_config": "NONE",
		"height_metric": null,
		"length_metric": null,
		"width_metric": null,
		"weight_metric": null,
		"max_weight_per_axle_group_metric": null,
		"timestamp_removed": null
	},
	{
		"vehicle_id": "063A8831EE57348E97BBCE7222222222",
		"member_id": 1,
		"is_deleted": false,
		"vehicle_alias": "Ollie",
		"vehicle_vin": "Zfberfat5g6b10711",
		"vehicle_reg_state_id": 0,
		"vehicle_reg_country_id": 0,
		"vehicle_license_plate": "Hhv6309",
		"vehicle_type_id": "",
		"timestamp_added": "2017-02-24T03:11:54-05:00",
		"vehicle_make": "",
		"vehicle_model_year": 0,
		"vehicle_model": "",
		"vehicle_year_acquired": 0,
		"vehicle_cost_new": null,
		"purchased_new": false,
		"license_start_date": "2018-08-15",
		"license_end_date": "2018-08-15",
		"vehicle_axle_count": 0,
		"is_operational": true,
		"mpg_city": 0,
		"mpg_highway": 0,
		"fuel_type": "",
		"height_inches": 0,
		"weight_lb": 0,
		"external_telematics_vehicle_id": null,
		"has_trailer": false,
		"heightInInches": null,
		"lengthInInches": null,
		"widthInInches": null,
		"maxWeightPerAxleGroupInPounds": null,
		"numAxles": null,
		"weightInPounds": null,
		"HazmatType": "NONE",
		"LowEmissionZonePref": null,
		"Use53FootTrailerRouting": null,
		"UseNationalNetwork": null,
		"UseTruckRestrictions": null,
		"AvoidFerries": "NO",
		"DividedHighwayAvoidPreference": null,
		"FreewayAvoidPreference": null,
		"InternationalBordersOpen": null,
		"TollRoadUsage": null,
		"hwy_only": false,
		"long_combination_vehicle": false,
		"avoid_highways": false,
		"side_street_adherence": "OFF",
		"truck_config": "NONE",
		"height_metric": null,
		"length_metric": null,
		"width_metric": null,
		"weight_metric": null,
		"max_weight_per_axle_group_metric": null,
		"timestamp_removed": null
	},
	{
		"vehicle_id": "07CB344D3A3E5DF0D7BC96A444444444",
		"member_id": 1,
		"is_deleted": false,
		"vehicle_alias": "408\/812",
		"vehicle_vin": "1GDJC34U67E114958",
		"vehicle_reg_state_id": 0,
		"vehicle_reg_country_id": 0,
		"vehicle_license_plate": "1189252",
		"vehicle_type_id": "",
		"timestamp_added": "2017-02-24T00:20:51-05:00",
		"vehicle_make": "GMC",
		"vehicle_model_year": 2007,
		"vehicle_model": "SILVERADO",
		"vehicle_year_acquired": 0,
		"vehicle_cost_new": null,
		"purchased_new": false,
		"license_start_date": "2018-08-15",
		"license_end_date": "2018-08-15",
		"vehicle_axle_count": 0,
		"is_operational": true,
		"mpg_city": 0,
		"mpg_highway": 0,
		"fuel_type": "",
		"height_inches": 0,
		"weight_lb": 0,
		"external_telematics_vehicle_id": null,
		"has_trailer": false,
		"heightInInches": null,
		"lengthInInches": null,
		"widthInInches": null,
		"maxWeightPerAxleGroupInPounds": null,
		"numAxles": null,
		"weightInPounds": null,
		"HazmatType": "NONE",
		"LowEmissionZonePref": null,
		"Use53FootTrailerRouting": null,
		"UseNationalNetwork": null,
		"UseTruckRestrictions": null,
		"AvoidFerries": "NO",
		"DividedHighwayAvoidPreference": null,
		"FreewayAvoidPreference": null,
		"InternationalBordersOpen": null,
		"TollRoadUsage": null,
		"hwy_only": false,
		"long_combination_vehicle": false,
		"avoid_highways": false,
		"side_street_adherence": "OFF",
		"truck_config": "NONE",
		"height_metric": null,
		"length_metric": null,
		"width_metric": null,
		"weight_metric": null,
		"max_weight_per_axle_group_metric": null,
		"timestamp_removed": null
	},
	{
		"vehicle_id": "095FEE63E2F431911B1BBABB88888888",
		"member_id": 1,
		"is_deleted": false,
		"vehicle_alias": "501\/811",
		"vehicle_vin": "1FTMF1CM60KE52467",
		"vehicle_reg_state_id": 0,
		"vehicle_reg_country_id": 0,
		"vehicle_license_plate": "1416207",
		"vehicle_type_id": "",
		"timestamp_added": "2017-02-24T00:21:20-05:00",
		"vehicle_make": "Ford",
		"vehicle_model_year": 2013,
		"vehicle_model": "F-150",
		"vehicle_year_acquired": 0,
		"vehicle_cost_new": null,
		"purchased_new": false,
		"license_start_date": "2018-08-15",
		"license_end_date": "2018-08-15",
		"vehicle_axle_count": 0,
		"is_operational": true,
		"mpg_city": 0,
		"mpg_highway": 0,
		"fuel_type": "",
		"height_inches": 0,
		"weight_lb": 0,
		"external_telematics_vehicle_id": null,
		"has_trailer": false,
		"heightInInches": null,
		"lengthInInches": null,
		"widthInInches": null,
		"maxWeightPerAxleGroupInPounds": null,
		"numAxles": null,
		"weightInPounds": null,
		"HazmatType": "NONE",
		"LowEmissionZonePref": null,
		"Use53FootTrailerRouting": null,
		"UseNationalNetwork": null,
		"UseTruckRestrictions": null,
		"AvoidFerries": "NO",
		"DividedHighwayAvoidPreference": null,
		"FreewayAvoidPreference": null,
		"InternationalBordersOpen": null,
		"TollRoadUsage": null,
		"hwy_only": false,
		"long_combination_vehicle": false,
		"avoid_highways": false,
		"side_street_adherence": "OFF",
		"truck_config": "NONE",
		"height_metric": null,
		"length_metric": null,
		"width_metric": null,
		"weight_metric": null,
		"max_weight_per_axle_group_metric": null,
		"timestamp_removed": null
	}],
	"first_page_url": "https:\/\/wh.route4me.com\/modules\/api\/vehicles?page=1",
	"from": 1,
	"last_page": 1354,
	"last_page_url": "https:\/\/wh.route4me.com\/modules\/api\/vehicles?page=1354",
	"next_page_url": "https:\/\/wh.route4me.com\/modules\/api\/vehicles?page=2",
	"path": "https:\/\/wh.route4me.com\/modules\/api\/vehicles",
	"per_page": 10,
	"prev_page_url": null,
	"to": 10,
	"total": 13540
}